('E:\\Python\\PROJECTS\\PythonZajecia\\build\\python z mysql\\python z '
 'mysql.pkg',
 {'BINARY': True,
  'DATA': True,
  'EXECUTABLE': True,
  'EXTENSION': True,
  'PYMODULE': True,
  'PYSOURCE': True,
  'PYZ': False,
  'SPLASH': True},
 [('PYZ-00.pyz',
   'E:\\Python\\PROJECTS\\PythonZajecia\\build\\python z mysql\\PYZ-00.pyz',
   'PYZ'),
  ('struct',
   'E:\\Python\\PROJECTS\\PythonZajecia\\build\\python z '
   'mysql\\localpycs\\struct.pyc',
   'PYMODULE'),
  ('pyimod01_archive',
   'E:\\Python\\PROJECTS\\PythonZajecia\\build\\python z '
   'mysql\\localpycs\\pyimod01_archive.pyc',
   'PYMODULE'),
  ('pyimod02_importers',
   'E:\\Python\\PROJECTS\\PythonZajecia\\build\\python z '
   'mysql\\localpycs\\pyimod02_importers.pyc',
   'PYMODULE'),
  ('pyimod03_ctypes',
   'E:\\Python\\PROJECTS\\PythonZajecia\\build\\python z '
   'mysql\\localpycs\\pyimod03_ctypes.pyc',
   'PYMODULE'),
  ('pyimod04_pywin32',
   'E:\\Python\\PROJECTS\\PythonZajecia\\build\\python z '
   'mysql\\localpycs\\pyimod04_pywin32.pyc',
   'PYMODULE'),
  ('pyiboot01_bootstrap',
   'E:\\Python\\lib\\site-packages\\PyInstaller\\loader\\pyiboot01_bootstrap.py',
   'PYSOURCE'),
  ('pyi_rth_inspect',
   'E:\\Python\\Lib\\site-packages\\PyInstaller\\hooks\\rthooks\\pyi_rth_inspect.py',
   'PYSOURCE'),
  ('python z mysql',
   'E:\\Python\\PROJECTS\\PythonZajecia\\python z mysql.py',
   'PYSOURCE'),
  ('python310.dll', 'E:\\Python\\python310.dll', 'BINARY'),
  ('VCRUNTIME140.dll',
   'C:\\Users\\user\\AppData\\Local\\Programs\\Python\\Python310\\VCRUNTIME140.dll',
   'BINARY'),
  ('_decimal.pyd',
   'C:\\Users\\user\\AppData\\Local\\Programs\\Python\\Python310\\DLLs\\_decimal.pyd',
   'EXTENSION'),
  ('_hashlib.pyd',
   'C:\\Users\\user\\AppData\\Local\\Programs\\Python\\Python310\\DLLs\\_hashlib.pyd',
   'EXTENSION'),
  ('select.pyd',
   'C:\\Users\\user\\AppData\\Local\\Programs\\Python\\Python310\\DLLs\\select.pyd',
   'EXTENSION'),
  ('_socket.pyd',
   'C:\\Users\\user\\AppData\\Local\\Programs\\Python\\Python310\\DLLs\\_socket.pyd',
   'EXTENSION'),
  ('_lzma.pyd',
   'C:\\Users\\user\\AppData\\Local\\Programs\\Python\\Python310\\DLLs\\_lzma.pyd',
   'EXTENSION'),
  ('_bz2.pyd',
   'C:\\Users\\user\\AppData\\Local\\Programs\\Python\\Python310\\DLLs\\_bz2.pyd',
   'EXTENSION'),
  ('_ssl.pyd',
   'C:\\Users\\user\\AppData\\Local\\Programs\\Python\\Python310\\DLLs\\_ssl.pyd',
   'EXTENSION'),
  ('unicodedata.pyd',
   'C:\\Users\\user\\AppData\\Local\\Programs\\Python\\Python310\\DLLs\\unicodedata.pyd',
   'EXTENSION'),
  ('libcrypto-1_1.dll',
   'C:\\Users\\user\\AppData\\Local\\Programs\\Python\\Python310\\DLLs\\libcrypto-1_1.dll',
   'BINARY'),
  ('libssl-1_1.dll',
   'C:\\Users\\user\\AppData\\Local\\Programs\\Python\\Python310\\DLLs\\libssl-1_1.dll',
   'BINARY'),
  ('base_library.zip',
   'E:\\Python\\PROJECTS\\PythonZajecia\\build\\python z '
   'mysql\\base_library.zip',
   'DATA')],
 False,
 False,
 False,
 [],
 None,
 None,
 None)
